Time is measured in seconds.
Because of the large size of the inputs and the small size of the running time, t(n)/T(n) is multiplied by a constant for readability.

Insertion Sort, T(n)=O(n^2)
+-------+--------+--------------+-----------------+
| n     | t(n)   | T(n)         | t(n)*10^10/T(n) |
+-------+--------+--------------+-----------------+
| 1024  | 0.0009 | 1048576.0    | 8.34            |
+-------+--------+--------------+-----------------+
| 2048  | 0.0027 | 4194304.0    | 6.45            |
+-------+--------+--------------+-----------------+
| 4096  | 0.0102 | 16777216.0   | 6.08            |
+-------+--------+--------------+-----------------+
| 8192  | 0.0413 | 67108864.0   | 6.16            |
+-------+--------+--------------+-----------------+
| 16384 | 0.1633 | 268435456.0  | 6.08            |
+-------+--------+--------------+-----------------+
| 32768 | 0.6606 | 1073741824.0 | 6.15            |
+-------+--------+--------------+-----------------+
| 65536 | 2.6063 | 4294967296.0 | 6.07            |
+-------+--------+--------------+-----------------+

Merge Sort, T(n)=O(n*log_2(n))
+---------+---------+------------+----------------+
| n       | t(n)    | T(n)       | t(n)*10^6/T(n) |
+---------+---------+------------+----------------+
| 16384   | 0.8322  | 229376.0   | 1.21           |
+---------+---------+------------+----------------+
| 32768   | 1.6806  | 491520.0   | 1.14           |
+---------+---------+------------+----------------+
| 65536   | 3.3276  | 1048576.0  | 1.06           |
+---------+---------+------------+----------------+
| 131072  | 6.7128  | 2228224.0  | 1.00           |
+---------+---------+------------+----------------+
| 262144  | 13.3408 | 4718592.0  | 0.94           |
+---------+---------+------------+----------------+
| 524288  | 26.6703 | 9961472.0  | 0.89           |
+---------+---------+------------+----------------+
| 1048576 | 53.3432 | 20971520.0 | 0.85           |
+---------+---------+------------+----------------+

Binary Search, T(n)=O(log_2(n))
+------+--------+------+----------------+
| n    | t(n)   | T(n) | t(n)*1000/T(n) |
+------+--------+------+----------------+
| 16   | 0.0139 | 4.0  | 3.48           |
+------+--------+------+----------------+
| 32   | 0.0161 | 5.0  | 3.22           |
+------+--------+------+----------------+
| 64   | 0.0189 | 6.0  | 3.15           |
+------+--------+------+----------------+
| 128  | 0.0208 | 7.0  | 2.98           |
+------+--------+------+----------------+
| 256  | 0.0238 | 8.0  | 2.98           |
+------+--------+------+----------------+
| 512  | 0.0261 | 9.0  | 2.90           |
+------+--------+------+----------------+
| 1024 | 0.0287 | 10.0 | 2.87           |
+------+--------+------+----------------+

